Chapter 3 Building Linear Models with SMART data, I | Data Science for Biological, Medical and Health Research: Notes for 432
…
 female 1_Excellent  2_VeryGood      3_Good      4_Fair    5_Poor        Total
      0  54 (14.4%) 130 (34.8%) 124 (33.2%)  49 (13.1%) 17 (4.5%) 374 (100.0%)
      1  80 (15.4%) 184 (35.5%) 160 (30.9%)  65 (12.5%) 29 (5.6%) 518 (100.0%)
  Total 134 (15.0%) 314 (35.2%) 284 (31.8%) 114 (12.8%) 46 (5.2%) 892 (100.0%)

3.4.2 What’s the distribution of physhealth?

We can count quantitative variables with discrete sets of possible values, like physhealth, which is captured as an integer (that must fall between 0 and 30.)

smart_cle1_cc %>% count(physhealth)

# A tibble: 21 x 2
   physhealth     n
        <dbl> <int>
 1          0   557
 2          1    42
 3          2    49
 4          3    33
 5          4    12
 6          5    26
 7          6     3
 8          7    18
 9          8     3
10         10    27
# ... with 11 more rows
…
