Chapter 16 Multiple Imputation and Linear Regression | Data Science for Biological, Medical and Health Research: Notes for 432
…
16.8 Running the Linear Regression in lm with Multiple Imputation

Next, we’ll run the linear model (main effects) on each of the 10 imputed data sets.

m10_mods <- 
    with(smart_16_mice10, lm(phys_tr ~ age_imp + comor + 
                                 smoke100 + hx_depress + 
                                 bmi + activity))

summary(m10_mods)

# A tibble: 90 x 5
   term                          estimate std.error statistic  p.value
   <chr>                            <dbl>     <dbl>     <dbl>    <dbl>
 1 (Intercept)                    0.518     0.330       1.57  1.17e- 1
 2 age_imp                       -0.00563   0.00338    -1.66  9.64e- 2
 3 comor                          0.305     0.0295     10.3   5.77e-24
 4 smoke100                       0.123     0.0806      1.53  1.28e- 1
 5 hx_depress                     0.490     0.0939      5.22  2.13e- 7
 6 bmi                            0.0145    0.00564     2.57  1.03e- 2
 7 activityActive                -0.200     0.137      -1.46  1.45e- 1
 8 activityInsufficiently_Active -0.0298    0.126      -0.236 8.13e- 1
 9 activityInactive               0.251     0.105       2.40  1.65e- 2
10 (Intercept)                    0.429     0.328       1.31  1.91e- 1
# ... with 80 more rows
…
