…
| skim\_variable | n\_missing | complete\_rate | mean |   sd | p0 | p25 | p50 | p75 | p100 | hist  |
| :------------- | ---------: | -------------: | ---: | ---: | -: | --: | --: | --: | ---: | :---- |
| PREVMI         |          0 |              1 | 0.65 | 0.48 |  0 |   0 |   1 |   1 |    1 | ▅▁▁▁▇ |

``` r
set.seed(500)

dig2 <- dig1_raw %>% 
    sample_n(size = 1000) %>%
    clean_names()

dig2
```

    # A tibble: 1,000 x 72
       subjectid trtmt   age  race   sex ejf_per ejfmeth chestx   bmi klevel creat
           <dbl> <dbl> <dbl> <dbl> <dbl>   <dbl>   <dbl>  <dbl> <dbl>  <dbl> <dbl>
     1      5480     1    76     1     2      37       1  0.63   25.0    4.4 1.76 
     2      6556     1    54     1     2      39       1  0.55   26.3    4.3 1.08 
     3      6576     1    76     1     1      25       3  0.65   27.3    4.7 0.9  
     4      6070     1    65     1     1      45       1  0.51   18.7   NA   1.6  
     5      4083     1    74     2     2      20       1  0.580  32.3    3.4 1.12 
     6      5290     1    63     1     1      30       1  0.62   28.3    4.5 1.5  
     7       800     1    80     1     1      16       1  0.51   23.3    5   0.955
     8      3309     1    90     2     1      37       3  0.63   21.0   NA   1.70 
     9      5168     0    70     1     1      22       2  0.48   30.3    4.1 1.02 
    10      5675     1    58     1     2      21       3  0.54   38.5    4.2 1.66 
    # ... with 990 more rows, and 61 more variables: digdoser <dbl>, chfdur <dbl>,
    #   rales <dbl>, elevjvp <dbl>, pedema <dbl>, restdys <dbl>, exertdys <dbl>,
    #   actlimit <dbl>, s3 <dbl>, pulcong <dbl>, nsym <dbl>, heartrte <dbl>,
    #   diabp <dbl>, sysbp <dbl>, functcls <dbl>, chfetiol <dbl>, prevmi <dbl>,
    #   angina <dbl>, diabetes <dbl>, hyperten <dbl>, diguse <dbl>, diuretk <dbl>,
    #   diuret <dbl>, ksupp <dbl>, aceinhib <dbl>, nitrates <dbl>, hydral <dbl>,
    #   vasod <dbl>, digdose <dbl>, cvd <dbl>, cvddays <dbl>, whf <dbl>,
    #   whfdays <dbl>, dig <dbl>, digdays <dbl>, mi <dbl>, midays <dbl>,
    #   uang <dbl>, uangdays <dbl>, strk <dbl>, strkdays <dbl>, sva <dbl>,
…
